module pinger.loper.me/m

go 1.18

require github.com/go-ping/ping v1.1.0

require (
	github.com/google/uuid v1.2.0 // indirect
	golang.org/x/net v0.0.0-20210316092652-d523dce5a7f4 // indirect
	golang.org/x/sync v0.0.0-20210220032951-036812b2e83c // indirect
	golang.org/x/sys v0.0.0-20210315160823-c6e025ad8005 // indirect
)
